R Notebook
…
bookings$FarePP = bookings$Fare/bookings$PassengerCount

Convert to FACTOR

bookings$class = as.factor(bookings$InvClass)
bookings$orig = as.factor(bookings$Origin)
bookings$desti = as.factor(bookings$Destination)

Forecasting Fares

Data Preparation

bookings %>% group_by(orig,desti) %>% tally(sort = TRUE) #indicates DATASET has DTW-LAS as highest number of flights

## Source: local data frame [726 x 3]
## Groups: orig [33]
## 
##      orig  desti     n
##    <fctr> <fctr> <int>
## 1     DTW    LAS 40833
## 2     MSP    LAS 39681
## 3     DTW    MCO 37887
## 4     MSP    MCO 35350
## 5     DTW    LAX 32428
## 6     MSP    LAX 31270
## 7     DTW    TPA 25197
## 8     MSP    SFO 24329
## 9     DTW    ATL 23572
## 10    MSP    DEN 22892
## # ... with 716 more rows
…
